●台湾測試,#genre#
TVBS精采台,P2p://generationnexxxt.com:19806/8885be3c87964472ae56321dd619461a
中视菁采台,P2p://generationnexxxt.com:19806/e19d3560171b4984a7e470c4ca40d029
中视经典,P2p://generationnexxxt.com:19806/d935dbde5fd7412d8b281a8659f66615
中视新闻,P2p://generationnexxxt.com:19806/b752f0eeba5e4e4783d89f99a7b64053
台视财经台,P2p://generationnexxxt.com:19806/ec9247281c984a6e980b1d0b1db98002
台视新闻台,P2p://generationnexxxt.com:19806/ef8ee9e7a5f54528b1016a192376681e
华视新闻,P2p://generationnexxxt.com:19806/2eef3a29a07741bf81c9564ea7478fc0
Taiwan+,P2p://generationnexxxt.com:19806/a6fe65aa9b664c099ede9276cdc529fb
靖天电影台,P2p://generationnexxxt.com:19806/37f508458d18414ea7ea39ef3094e33a
靖天日本台,P2p://generationnexxxt.com:19806/84edd72117684284839491064cc9e91a
靖天戏剧台,P2p://generationnexxxt.com:19806/e2737ea759454aa78156c25d861a9de9
靖天映画,P2p://generationnexxxt.com:19806/6caa39c31eef4f81bfbad1bde5618aef
靖天育乐台,P2p://generationnexxxt.com:19806/00c434244d354297a2db52f458de84e9
靖天综合台,P2p://generationnexxxt.com:19806/baa8ea1bb88b4d1ea9e45d3bff27c45b
Nice TV靖天欢乐台,P2p://generationnexxxt.com:19806/f72a2966a20946ae9446690a226fa518
靖洋卡通台,P2p://generationnexxxt.com:19806/065c35d76d014405a84fa62b33632c44
龙华偶像,P2p://generationnexxxt.com:19806/aaea3687d69243cbb3de3086f95392e7
八大优,P2p://generationnexxxt.com:19806/0c7965c191034d84b149b69d9534c4d2
EVE,P2p://generationnexxxt.com:19806/cb003e49d5224ce09856f1c1770c32e5
EYE旅游,P2p://generationnexxxt.com:19806/0b1bdbbf73a5429ead599b28ba908e94
EYE戏剧,P2p://generationnexxxt.com:19806/d95a1bbfe35f4b9ba69f50ce0d2e4618
三立戏剧台,P2p://generationnexxxt.com:19806/410a9eec5c1d4c5191ee06a59b828a58
纬来精采,P2p://generationnexxxt.com:19806/451eee0a7ab64c58a0970d95b1031437
寰宇新闻,P2p://generationnexxxt.com:19806/c026ff52334f43e09d98ad3280db22ef
壹电视综合台,P2p://generationnexxxt.com:19806/164313f61c904a32913b338b5318ef33
韩国娱乐台KMTV,P2p://generationnexxxt.com:19806/61d204e7391b48b78c77df72c70335e9
靖洋戏剧台,P2p://generationnexxxt.com:19806/146f03a272894fdd97a4b57059c139e3
星卫娱乐,P2p://generationnexxxt.com:19806/2667ca546c8f49c4a81504e11a8650e8
佛卫慈悲台,P2p://generationnexxxt.com:19806/14c26fc0ab914b06a33cf526929395cb
HOY TV,P2p://generationnexxxt.com:19806/888310b67d4145d38881b7aff412bc4e
Travel Channel,P2p://generationnexxxt.com:19806/15369bd05a294d3087377848d53a0a98
ROCK Entertainment,P2p://generationnexxxt.com:19806/351101be2d9747ba94612c4b93c3bebd
ONE,P2p://generationnexxxt.com:19806/952368f8f4cf42339c651edcb6267585
ONE,P2p://generationnexxxt.com:19806/4c1d7a42f06e431589aa29448f2a77d5
新时代1(西部),P2p://generationnexxxt.com:19806/b1ccf61be69c4586bcef99336ff297c6
新时代2,P2p://generationnexxxt.com:19806/d3875eccaa1d4b07a633402fac5cb999
新时代1(东部),P2p://generationnexxxt.com:19806/90cf0a71709d458bb17695dd32d569df
城市电视,P2p://generationnexxxt.com:19806/4ed9cf9666d7430d94e6f4f8c26986f6
天映频道,P2p://generationnexxxt.com:19806/92386b47be6544dca5c536204bddc813
天映频道,P2p://generationnexxxt.com:19806/92386b47be6544dca5c536204bddc813
天映经典,P2p://generationnexxxt.com:19806/0229760baf0a441bba169ee12d860fb7
天映经典,P2p://generationnexxxt.com:19806/0229760baf0a441bba169ee12d860fb7
美亚高清电影台,P2p://generationnexxxt.com:19806/dd098e4bd8c4432da26bf91235f43596
美亚电影台(粤语),P2p://generationnexxxt.com:19806/ffc2cb77727a4ae19ad234de76c840fd
靖天映画,P2p://generationnexxxt.com:19806/6caa39c31eef4f81bfbad1bde5618aef
靖天电影台,P2p://generationnexxxt.com:19806/37f508458d18414ea7ea39ef3094e33a
壹电视电影台,P2p://generationnexxxt.com:19806/0c547d4f29db4bef9790f259ee669818
星卫HD电影,P2p://generationnexxxt.com:19806/d050c38fac8c411aaa9b9a300aeaa1e4
凤凰电影台,P2p://generationnexxxt.com:19806/9fd9601feb7545e5941996eaefd3fcc3
采昌影剧,P2p://generationnexxxt.com:19806/31c35d1e653f48a6a1ef0ae3afc21216
HKC 18,P2p://generationnexxxt.com:19806/2ea5b3599fc94ffbaf94bcec0b1a436d
香港603,P2p://generationnexxxt.com:19806/2141e79414314275a21c96d6b9a74933
HKC Sports Plus 1,P2p://generationnexxxt.com:19806/82f71e9986084c86a85807f6fa9ab8a5
HKC Sports Plus 3,P2p://generationnexxxt.com:19806/6049814ecef34f09b504a724d2141ee3
HKC体育台,P2p://generationnexxxt.com:19806/edd0e12a6a464363a6bf754f4ecc0b99
博斯高球2台,P2p://generationnexxxt.com:19806/9ad2e789a1f24414b5ba3bce8225638f
博斯魅力网,P2p://generationnexxxt.com:19806/79e1743aa91c4a3f9b356d3e623aaa1e
博斯网球台,P2p://generationnexxxt.com:19806/eabbb39b2df84ec7b180dd07d003e801
博斯无限二台,P2p://generationnexxxt.com:19806/c72f3545e44c43ada003f77cb4fbfcad
博斯无限台,P2p://generationnexxxt.com:19806/388b178d61794d16a7f53bbea14a1d82
博斯运动一台,P2p://generationnexxxt.com:19806/69f6752a9d7b43d4b82c649b645a6028
博斯运动二台,P2p://generationnexxxt.com:19806/13330f2946b14921ac4ba04f38403f80
WWE,P2p://generationnexxxt.com:19806/157d295b0933470ab2c880d58a7f14ce
凤凰电影,P2p://generationnexxxt.com:19806/9fd9601feb7545e5941996eaefd3fcc3
凤凰香港,P2p://generationnexxxt.com:19806/b798f9c3760f4ab293026c531ce7e07d
凤凰中文,P2p://generationnexxxt.com:19806/82176df4d34645d29cd3d021ab4fcfb5
翡翠台(华丽台),P2p://generationnexxxt.com:19806/273abed884a24011a410ddb0ea81cb1a
港台电视31,P2p://generationnexxxt.com:19806/74fc0c2698d7473993bf38cc305005d8
港台电视32,P2p://generationnexxxt.com:19806/2c0081f46ec34d938526a4840a8d77db
HKC体育台,P2p://generationnexxxt.com:19806/edd0e12a6a464363a6bf754f4ecc0b99
TVB经典台,P2p://generationnexxxt.com:19806/d63e2f53bfab45a5ab38e79430862268
TVB星河(粤),P2p://generationnexxxt.com:19806/18d7387cc825496db789bbfa731a5707
TVB娱乐新闻台,P2p://generationnexxxt.com:19806/8378c6ce158144038e684ac97d498273
HKC 18,P2p://generationnexxxt.com:19806/2ea5b3599fc94ffbaf94bcec0b1a436d
HKC Sports Plus 1,P2p://generationnexxxt.com:19806/82f71e9986084c86a85807f6fa9ab8a5
HKC电影台,P2p://generationnexxxt.com:19806/dd45accdb93f42b8ae129d7b4bcc1ba5
HKC体育台,P2p://generationnexxxt.com:19806/edd0e12a6a464363a6bf754f4ecc0b99
HKC综合娱乐台,P2p://generationnexxxt.com:19806/f4815802ef204971b9820b0d6e0bd096
香港603,P2p://generationnexxxt.com:19806/2141e79414314275a21c96d6b9a74933
港台电视31,P2p://generationnexxxt.com:19806/74fc0c2698d7473993bf38cc305005d8
港台电视32,P2p://generationnexxxt.com:19806/2c0081f46ec34d938526a4840a8d77db
Thrill,P2p://generationnexxxt.com:19806/20093cc9ef3e4571ae35a29f08682471
美亚电影台(粤语),P2p://generationnexxxt.com:19806/ffc2cb77727a4ae19ad234de76c840fd
阳光卫视,P2p://generationnexxxt.com:19806/260fcd7bb0bf4607b5ba6e3156c92995
澳门-MACAU,P2p://generationnexxxt.com:19806/2df34f6afc8c4ca583776ce95f685e31
澳门莲花,P2p://generationnexxxt.com:19806/47c068088f364f139bbee06bc68b6bf3

🏗測試,#genre#
有線18台,rtmp://59.124.75.138/sat/hk041
面包台,https://video.bread-tv.com:8091/hls-live24/online/index.m3u8

晴天源,#genre#
CNN,mitv://generationnexxxt.com:19806/3745a94cbe904b9480d19a1b5dfc6275
民视,mitv://generationnexxxt.com:19806/40c260a6af2241b2a42f80dc9b8e17f7
台视,mitv://generationnexxxt.com:19806/d5d9055ddc8d49d3ad02089b2852d81a
中视,mitv://generationnexxxt.com:19806/2c6fa632518d463f88f830ada02858a8
霹雳台湾台,mitv://generationnexxxt.com:19806/80b72d7a87c34d5abbdbf128e9cfc91a
华视,mitv://generationnexxxt.com:19806/c630c0cd9de94be49ab3e20e89b99a18
公视,mitv://generationnexxxt.com:19806/7059f7e6a7d9414e879830e213f6a76f
国家地理频道,mitv://generationnexxxt.com:19806/1b1f8ec66dc544ec821769097fa5306d
探索频道,mitv://generationnexxxt.com:19806/68bda999f56b477ca00f2b25b98127ff
TLC旅游生活,mitv://generationnexxxt.com:19806/f90ee29629994e3d9086b1f80c3b6979
动物星球,mitv://generationnexxxt.com:19806/e62bbeb1ff7f411e8276d7e6d798121d
CN卡通频道,mitv://generationnexxxt.com:19806/96e4992ec1f74491bc997bc076d01513
MOMO亲子台,mitv://generationnexxxt.com:19806/b90246990ef64289bd968f96bea74856
东森幼幼台,mitv://generationnexxxt.com:19806/9de4a70f94504a33af8c431aed5a25e9
纬来综合台,mitv://generationnexxxt.com:19806/00417bdd1ce245a9b5a919abb5f6aae8
八大第一台,mitv://generationnexxxt.com:19806/886a158b114444c5ae94bc2eb17d22bf
八大综合台,mitv://generationnexxxt.com:19806/37b63f7a24134b7a94fb56123b0dd012
三立台湾台,mitv://generationnexxxt.com:19806/11c651cfef6142a7937d782d27afb245
三立都会台,mitv://generationnexxxt.com:19806/3f865d816d44456681716782847adbe9
东森综合台,mitv://generationnexxxt.com:19806/106c81959d3c4466be186b19f43484f0
超视,mitv://generationnexxxt.com:19806/133f0e8d02554f39bf34889be5c3e499
中天综合台,mitv://generationnexxxt.com:19806/632df82d30984a6a9983c3d0ed8f35e2
中天娱乐台,mitv://generationnexxxt.com:19806/e682acc34124478a96d6476b419bc6d8
东森戏剧台,mitv://generationnexxxt.com:19806/0d18b04f93744f73950afcdc9224850a
八大戏剧台,mitv://generationnexxxt.com:19806/9e87ea86229049bbb244c0338885eaeb
TVBS欢乐台,mitv://generationnexxxt.com:19806/22925d5cae304d51a7b19bf4d5a00317
纬来戏剧台,mitv://generationnexxxt.com:19806/75f0a53f27384cddb1e0596709325873
高点综合台,mitv://generationnexxxt.com:19806/dbe3f7ae2d124d92946eb98a0bb79bb0
BBC World News,mitv://generationnexxxt.com:19806/4500941de27f434cae09553a1f0ed4d1
Al Jazeera English,mitv://generationnexxxt.com:19806/03bc1638cc9f4efe9dde7bf6a456bb5b
CNBC,mitv://generationnexxxt.com:19806/8603e70bd41c4e4a9368407a8a4debdd
Bloomberg TV,mitv://generationnexxxt.com:19806/fbf63c9e85084cf98b7e39d2cd178608
HITS,mitv://generationnexxxt.com:19806/be8e6fe7ffd343edb7bec5d01de30204
壹电视新闻台,mitv://generationnexxxt.com:19806/a84b87402809424bb947aea015bd6f34
年代新闻,mitv://generationnexxxt.com:19806/f721025fa5eb4938925ffd40f311b413
东森新闻台,mitv://generationnexxxt.com:19806/6734343eb91244a8b6752ce896b2402f
中天新闻台,mitv://generationnexxxt.com:19806/c88a7e7e25334800becd67d8aca62756
民视新闻台,mitv://generationnexxxt.com:19806/64ef45a872254806bc04be427324fa36
三立新闻台,mitv://generationnexxxt.com:19806/7109c60c1ae14727873d26cde90a38c5
TVBS新闻台,mitv://generationnexxxt.com:19806/76f09b45977d45e2a2f24b27520f0138
TVBS,mitv://generationnexxxt.com:19806/11123e45a1044e56ad9e0df60cad1e34
东森财经新闻台,mitv://generationnexxxt.com:19806/58b140e84a6f429b8b1dc309836c2397
非凡新闻台,mitv://generationnexxxt.com:19806/db76f72df6cc4a58b5c8142605e74d43
卫视电影台,mitv://generationnexxxt.com:19806/67dbc447e8aa43148cef9f0c78332ef1
东森电影台,mitv://generationnexxxt.com:19806/d1fecc0f332d4fbfac056b773a0243ca
纬来电影台,mitv://generationnexxxt.com:19806/2c7618b1e7364232a9664b275ff6c665
龙祥电影,mitv://generationnexxxt.com:19806/7672f3ff066948cbbef392effa510141
HBO,mitv://generationnexxxt.com:19806/2b8e0f4e06264ee8914bb4616669411e
东森洋片台,mitv://generationnexxxt.com:19806/397fa5a566a04b6c92260c5cf7618715
AXN,mitv://generationnexxxt.com:19806/ca535eda852d4225922214a23656dc71
好莱坞电影台,mitv://generationnexxxt.com:19806/6e400e7480aa48a0a07595343f01fca8
纬来育乐台,mitv://generationnexxxt.com:19806/5733ed9a251e4ea7b9b7414cbbc41379
纬来体育台,mitv://generationnexxxt.com:19806/cfe7149c529f4e449e1aa1dc27eb1bc2
ELEVEN体育1台,mitv://generationnexxxt.com:19806/c098b9305dcb49fa9fa3042f977c7ad7
JET综合台,mitv://generationnexxxt.com:19806/d4d21dd1897942949b51dc54ee30bee4
国兴卫视,mitv://generationnexxxt.com:19806/661c9a80da4e4677be285da9dbf80bea
STAR World,mitv://generationnexxxt.com:19806/93989038d93244e69b0b016ae40f3d57
Z频道,mitv://generationnexxxt.com:19806/41d8f2ded4a14c019e1a06adfcb7259c
Animax,mitv://generationnexxxt.com:19806/8e83059fe3fa4ecea3444042e2be0b33
尼克儿童频道,mitv://generationnexxxt.com:19806/4442db388c7e45b096f14f00689142db
MTV,mitv://generationnexxxt.com:19806/392ad1aba89e48ddb53090459370e611
八大娱乐台,mitv://generationnexxxt.com:19806/a356e70e7f4d4afeb2c1b9233b482f4b
三立iNEWS,mitv://generationnexxxt.com:19806/0441a944caed4cc3b09dc08fdff718ad
龙华偶像,mitv://generationnexxxt.com:19806/aaea3687d69243cbb3de3086f95392e7
Arirang,mitv://generationnexxxt.com:19806/32ae4206a8494015ba3ca31d76c34a4e
tvN,mitv://generationnexxxt.com:19806/0a5ae3fce9314efba3240158ae4bc485
DW,mitv://generationnexxxt.com:19806/da713062bd9d419a913b6e9b1aef8fb6
France24,mitv://generationnexxxt.com:19806/36154fded93f445f863db448232fffa4
非凡商业台,mitv://generationnexxxt.com:19806/f1e322aa02de4d33bd1d8fe7a904ea0f
公视3台,mitv://generationnexxxt.com:19806/c98d6202a9ce4f5f996ee3892d7cf229
大爱2台,mitv://generationnexxxt.com:19806/753d68a095a8460aad7b6660a77c96ba
达文西频道,mitv://generationnexxxt.com:19806/ae2b128e602241c2b3833332e1aeb694
Nick Jr.,mitv://generationnexxxt.com:19806/61f8c82914c54de59bb613dd349c8977
MTV Live,mitv://generationnexxxt.com:19806/3e9d47d3aadb4be1ba8510cdb3b0302e
Mezzo Live,mitv://generationnexxxt.com:19806/3414148382a441c6bb4aa392837c8428
CMusic,mitv://generationnexxxt.com:19806/5627acd693ff47e5966c985bd70c459b
爱尔达体育1台(备),mitv://generationnexxxt.com:19806/368166544cf14a3782f3e5a5f05bb2aa
爱尔达体育2台,mitv://generationnexxxt.com:19806/a71b4dd6d0a74dcbb82750b7b24a8b71
TRACE Sport Stars,mitv://generationnexxxt.com:19806/166cf0f094ca46f68946e08837c0a191
博斯高球,mitv://generationnexxxt.com:19806/39bbedf85f5249918fd3328d0e4c8407
博斯高球二台,mitv://generationnexxxt.com:19806/9ad2e789a1f24414b5ba3bce8225638f
博斯网球台,mitv://generationnexxxt.com:19806/eabbb39b2df84ec7b180dd07d003e801
博斯魅力网,mitv://generationnexxxt.com:19806/79e1743aa91c4a3f9b356d3e623aaa1e
博斯无限台,mitv://generationnexxxt.com:19806/388b178d61794d16a7f53bbea14a1d82
博斯无限二台,mitv://generationnexxxt.com:19806/c72f3545e44c43ada003f77cb4fbfcad
博斯运动,mitv://generationnexxxt.com:19806/69f6752a9d7b43d4b82c649b645a6028
ELEVEN体育2台,mitv://generationnexxxt.com:19806/917e17cbb4d34bcba80691ab6c3a59be
博斯运动二台,mitv://generationnexxxt.com:19806/13330f2946b14921ac4ba04f38403f80
OUTDOOR,mitv://generationnexxxt.com:19806/2f3dd1dbfd0247238860ea5d958e5ebe
HBO强档巨献,mitv://generationnexxxt.com:19806/c3f10bb71ea74bb68c9390b3cc7c50c0
HBO原创巨献,mitv://generationnexxxt.com:19806/69492ac4bba34a11a8de21792a376baf
国家地理高画质野生频道,mitv://generationnexxxt.com:19806/3b9bf42549604a2ab036b392b5108cf7
BBC Earth,mitv://generationnexxxt.com:19806/3c2c6ac179f448f5ae5d9cc8abc5efb4
Discovery Asia,mitv://generationnexxxt.com:19806/63ec7853effa4011a77569913c8fe5e7
Discovery科学频道,mitv://generationnexxxt.com:19806/7157f2127328417daedb7083ac5e7ea2
DMAX,mitv://generationnexxxt.com:19806/40a2d5922fb24a5f96900536dc212cbf
EVE,mitv://generationnexxxt.com:19806/cb003e49d5224ce09856f1c1770c32e5
历史频道,mitv://generationnexxxt.com:19806/de642a93cfae4af18c8e47af38c796ce
罪案侦缉频道,mitv://generationnexxxt.com:19806/86f73b65769a48bbaf9bd83fd430df8a
BBC Lifestyle,mitv://generationnexxxt.com:19806/f030035e810744eebe54fb9a30b6497b
LUXE TV,mitv://generationnexxxt.com:19806/63c2fe237e75428eaaea2ae9fd1750ab
Lifetime,mitv://generationnexxxt.com:19806/adde7c4d8aaa48638f0ec9d36f5c2c93
KLT-靖天国际台,mitv://generationnexxxt.com:19806/e4a17f356b044d28b014797d13fd9d58
HGTV居家乐活频道,mitv://generationnexxxt.com:19806/61c2aee42c734f499d74af79bb820207
Love Nature,mitv://generationnexxxt.com:19806/e847a5ed513f4f7d84611b80996078f4
美食星球,mitv://generationnexxxt.com:19806/48a5325e74354deaa422edba7a4a75b6
亚洲美食频道,mitv://generationnexxxt.com:19806/1ba5704443ec4f0aa32e9eb079008758
亚洲旅游台,mitv://generationnexxxt.com:19806/b560014689fa4f339bf68f059ca51255
EYE TV旅游台,mitv://generationnexxxt.com:19806/0b1bdbbf73a5429ead599b28ba908e94
时尚频道,mitv://generationnexxxt.com:19806/f6d54ea8fafc433ab2c56d4929cbdd75
三立综合台,mitv://generationnexxxt.com:19806/ee47ad1ea78049ac8577929b4cef18f6
靖天资讯台,mitv://generationnexxxt.com:19806/4d45f882077f4cf58806f16046b37ec8
靖天综合台,mitv://generationnexxxt.com:19806/baa8ea1bb88b4d1ea9e45d3bff27c45b
靖天育乐台,mitv://generationnexxxt.com:19806/00c434244d354297a2db52f458de84e9
中视经典台,mitv://generationnexxxt.com:19806/d935dbde5fd7412d8b281a8659f66615
中视菁采台,mitv://generationnexxxt.com:19806/e19d3560171b4984a7e470c4ca40d029
TVBS精采台,mitv://generationnexxxt.com:19806/8885be3c87964472ae56321dd619461a
壹电视综合,mitv://generationnexxxt.com:19806/164313f61c904a32913b338b5318ef33
纬来精采,mitv://generationnexxxt.com:19806/451eee0a7ab64c58a0970d95b1031437
ETtoday综合台,mitv://generationnexxxt.com:19806/9667fbc558a84e76baf883b01086eee4
Nice TV靖天欢乐台,mitv://generationnexxxt.com:19806/f72a2966a20946ae9446690a226fa518
八大优频道,mitv://generationnexxxt.com:19806/0c7965c191034d84b149b69d9534c4d2
三立戏剧台,mitv://generationnexxxt.com:19806/410a9eec5c1d4c5191ee06a59b828a58
龙华戏剧,mitv://generationnexxxt.com:19806/62a2bca1f9f844688a5c1bb78a163e13
靖洋戏剧台,mitv://generationnexxxt.com:19806/146f03a272894fdd97a4b57059c139e3
靖天日本台,mitv://generationnexxxt.com:19806/84edd72117684284839491064cc9e91a
i-Fun动漫台,mitv://generationnexxxt.com:19806/0ce8bdb1044647af9bd397e05c57cb73
星卫娱乐台,mitv://generationnexxxt.com:19806/2667ca546c8f49c4a81504e11a8650e8
ROCK Extreme,mitv://generationnexxxt.com:19806/b5403c77b1a74fbeba7dc94d583b6a96
寰宇新闻台,mitv://generationnexxxt.com:19806/c026ff52334f43e09d98ad3280db22ef
NHK新闻资讯台,mitv://generationnexxxt.com:19806/92867b4fe30b4dd491a01d448afc8062
星卫HD电影台,mitv://generationnexxxt.com:19806/d050c38fac8c411aaa9b9a300aeaa1e4
靖天映画,mitv://generationnexxxt.com:19806/6caa39c31eef4f81bfbad1bde5618aef
WARNER TV,mitv://generationnexxxt.com:19806/d4639fbf11424dcf8f2614071d57b567
Star Movies HD,mitv://generationnexxxt.com:19806/3fbe4196c67f45ff9312d1617df03ac4
HBO Family,mitv://generationnexxxt.com:19806/0f5c08c72c364df8b0a97c837e81802d
CatchPlay电影台,mitv://generationnexxxt.com:19806/a1b6fd58115c4a7392ff9b43d5fa1461
壹电视电影台,mitv://generationnexxxt.com:19806/0c547d4f29db4bef9790f259ee669818
采昌影剧台,mitv://generationnexxxt.com:19806/31c35d1e653f48a6a1ef0ae3afc21216


佛卫慈悲台,mitv://generationnexxxt.com:19806/14c26fc0ab914b06a33cf526929395cb
TV5Monde,mitv://generationnexxxt.com:19806/2734d86c3cba4b42b372f394138fe160
Cbeebies,mitv://generationnexxxt.com:19806/1e06e59d527c47709205564b212b884a
EYE TV戏剧台,mitv://generationnexxxt.com:19806/d95a1bbfe35f4b9ba69f50ce0d2e4618
台视新闻台,mitv://generationnexxxt.com:19806/ef8ee9e7a5f54528b1016a192376681e
寰宇新闻台湾台,mitv://generationnexxxt.com:19806/c6ca3ab80f4245f18380f98b9519d17a
台视财经台,mitv://generationnexxxt.com:19806/ec9247281c984a6e980b1d0b1db98002
纬来日本,mitv://generationnexxxt.com:19806/b22bbd1becc24e79bcf7b2725e0abff6
爱尔达影剧台,mitv://generationnexxxt.com:19806/3ead6bd41aaa4df2be79322afa7a3841
ROCK Entertainment,mitv://generationnexxxt.com:19806/351101be2d9747ba94612c4b93c3bebd
民视(备),mitv://generationnexxxt.com:19806/89f3c543c2ae469eb3377f6daccb0fae
三立台湾台(备),mitv://generationnexxxt.com:19806/01a461216f4c4a1c812b3e2d42b05f7b
Dreamworks,mitv://generationnexxxt.com:19806/f64a7bd5c5ae46f498899bf8f79a721c
TV5MONDE Style 生活时尚,mitv://generationnexxxt.com:19806/50a3974dcf7e431c91e8f212d708cd0f
Travel Channel,mitv://generationnexxxt.com:19806/15369bd05a294d3087377848d53a0a98
影迷数位电影台,mitv://generationnexxxt.com:19806/ff075ec54a154e2bb7d95b92c89dff59
卫视中文台,mitv://generationnexxxt.com:19806/0d4fbd6c6ba9499e9a75a3d90fef3d4b
爱尔达体育1台,mitv://generationnexxxt.com:19806/8fc9a408fa54413e8757df91344c805d
Star Movies Gold,mitv://generationnexxxt.com:19806/eed82c74928f497080ecffdd16b59623
爱尔达体育3台,mitv://generationnexxxt.com:19806/6a94fcef07d64f50a1edf2837f398cd4
台视(备),mitv://generationnexxxt.com:19806/f9b5fc5965b04296a04e64f4c305aef6
大爱(备),mitv://generationnexxxt.com:19806/7f8fc232bc6f4b2a88b87c64ece0afff
中视(备),mitv://generationnexxxt.com:19806/e8a870cb7bbd48a68e63f38657dff1c5
华视(备),mitv://generationnexxxt.com:19806/a5b2ed486cab4667b7abd720cbdfe119
公视(备),mitv://generationnexxxt.com:19806/a515a98099ca432faddbda43a23b1404
东森新闻台(备),mitv://generationnexxxt.com:19806/0c90cd060e114bdfa4380f3dff8e1a73
Taiwan+,mitv://generationnexxxt.com:19806/a6fe65aa9b664c099ede9276cdc529fb


CCTV1,mitv://generationnexxxt.com:19806/ed4a6f0452a24765bc252f219b5f3d70
CCTV2,mitv://generationnexxxt.com:19806/d6bab1cf99c84393bc5cfec7f3f1ce1a
CCTV3,mitv://generationnexxxt.com:19806/2b71b803204a4db68b811aeebff78583
CCTV4,mitv://generationnexxxt.com:19806/184980ad9121443fa6b45c9f6c3f9e3c
CCTV5,mitv://generationnexxxt.com:19806/3b142cffb4924301b28c5f605630801e
CCTV5+,mitv://generationnexxxt.com:19806/523c903908b7424f9f71bf77a2427b71
CCTV6,mitv://generationnexxxt.com:19806/fabe340b1cc94bc8a42db4844fb7e497
CCTV7,mitv://generationnexxxt.com:19806/bdb65d653d2047b28f0b63754eaedf7f
CCTV8,mitv://generationnexxxt.com:19806/0b89dbe0103d4b7c996322d23953ee61
CCTV9,mitv://generationnexxxt.com:19806/5f684b66c63e4e13a64d397bdcfc6080
CCTV10,mitv://generationnexxxt.com:19806/e80d571550544cec9c042cd582afe711
CCTV11,mitv://generationnexxxt.com:19806/8904b82974004fa3b0322f4d1961d8ce
CCTV12,mitv://generationnexxxt.com:19806/d9aa973d952a4400b770e0e159556464
CCTV13,mitv://generationnexxxt.com:19806/707de9b4cd414d8d9a0d22412f0f7fbc
CCTV14,mitv://generationnexxxt.com:19806/85745f450c384b1e9a8b632423828e4f
CCTV15,mitv://generationnexxxt.com:19806/e01f3a43c75241bbbc11e400490c45eb
北京卫视,mitv://generationnexxxt.com:19806/a3e3c842f02b4310ad20ee0d674b4069
天津卫视,mitv://generationnexxxt.com:19806/0570c5d497424b078016e71d895f2378
河北卫视,mitv://generationnexxxt.com:19806/2a4ffc107fe746839d9d3387de7c075e
黑龙江卫视,mitv://generationnexxxt.com:19806/d50c061da11d4424b8a8c4ab727e38db
辽宁卫视,mitv://generationnexxxt.com:19806/43846bcf0cd24cc7958b51f7884ff9a9
东方卫视,mitv://generationnexxxt.com:19806/f7afa7867a6449f2bd3e564e9e1f0aa8
江苏卫视,mitv://generationnexxxt.com:19806/1b66ef559b884b0289be4f673d58c64e
浙江卫视,mitv://generationnexxxt.com:19806/e1f5b000c00d469898fab04255fa79f9
江西卫视,mitv://generationnexxxt.com:19806/30720a578c18454db5c05316c0126e85
山东卫视,mitv://generationnexxxt.com:19806/c862278114494f07a4342fedcab6546a
东南卫视,mitv://generationnexxxt.com:19806/d403265cb7e449d48b233bfd69ded0da
湖北卫视,mitv://generationnexxxt.com:19806/0535c6690dd940d8b186c4bbc0290869
湖南卫视,mitv://generationnexxxt.com:19806/749f84d182be40fbb36dc2c46b21ccee
深圳卫视,mitv://generationnexxxt.com:19806/ce763fb44691406988f1b4ae4cc6cbcc
广东卫视,mitv://generationnexxxt.com:19806/8f9f5bf3b1554ef38a7916572c4ea0dc
广西卫视,mitv://generationnexxxt.com:19806/58114cdc99154889ae502382a9ff3507
重庆卫视,mitv://generationnexxxt.com:19806/72c8ce08e4394b5e86aa3c36e96d2baf
云南卫视,mitv://generationnexxxt.com:19806/0d3dca6951db442aa7da18b7ad7b2d01
星空卫视,mitv://generationnexxxt.com:19806/940e43349642479a843d8b9bc53c47d3
广东南方卫视,mitv://generationnexxxt.com:19806/9d3cacc5ca5d4c2fa444b4ab624806cb
珠江台,mitv://generationnexxxt.com:19806/caf4a9197ad347f3a0a0c67469ecdb12
动漫秀场,mitv://generationnexxxt.com:19806/606e6f2ed605464398838a28a8eedcca
魅力足球,mitv://generationnexxxt.com:19806/8c75b45557f64dbba65257a5c9096077
五星体育,mitv://generationnexxxt.com:19806/959661cff0a04f3992d128dd93281579
广东体育,mitv://generationnexxxt.com:19806/e9e2075a549c4f98802b4c029614289d
CHC动作电影,mitv://generationnexxxt.com:19806/1c38c3ebe98f4365978a213d84d1d11b
CCTV16,mitv://generationnexxxt.com:19806/1fad65cc089b41fb9f35b66bc73800e4
广东影视,mitv://generationnexxxt.com:19806/00f9795a39fe455a8aada20e2b6e7cfc
CHC高清电影,mitv://generationnexxxt.com:19806/dd917220abee49abbee90ffa427117ce
CHC家庭影院,mitv://generationnexxxt.com:19806/502a4e7d1559401dbf6d8fbbd765d4a9
港台電視31,mitv://generationnexxxt.com:19806/74fc0c2698d7473993bf38cc305005d8
港台电视32,mitv://generationnexxxt.com:19806/2c0081f46ec34d938526a4840a8d77db
HOY TV,mitv://generationnexxxt.com:19806/888310b67d4145d38881b7aff412bc4e
﻿翡翠台(备),mitv://generationnexxxt.com:19806/222f28eff08c40c2a2f10773500188be
J2,mitv://generationnexxxt.com:19806/9e4c0f8b5d8f45018367cccbf443bd61
无线新闻台(备),mitv://generationnexxxt.com:19806/bd60966852d044a194e8136c596219fb
无线新闻台,mitv://generationnexxxt.com:19806/a532a9bc47be4ea7892f61843eeaf4fd
无线财经·资讯台,mitv://generationnexxxt.com:19806/a730755fb80b4e5aa7923bdd52e88f22
ViuTVsix,mitv://generationnexxxt.com:19806/302b10a7330f425495094fddf4ae9ea1
ViuTV,mitv://generationnexxxt.com:19806/71de5ab34dc24e0585d3d518c011d45b
凤凰中文台,mitv://generationnexxxt.com:19806/82176df4d34645d29cd3d021ab4fcfb5
凤凰资讯台,mitv://generationnexxxt.com:19806/9601e432db8346318bc3f53bd6342b77
凤凰香港台,mitv://generationnexxxt.com:19806/b798f9c3760f4ab293026c531ce7e07d
TVB星河(粤),mitv://generationnexxxt.com:19806/18d7387cc825496db789bbfa731a5707
阳光卫视,mitv://generationnexxxt.com:19806/260fcd7bb0bf4607b5ba6e3156c92995
澳门-MACAU,mitv://generationnexxxt.com:19806/2df34f6afc8c4ca583776ce95f685e31
澳门莲花,mitv://generationnexxxt.com:19806/47c068088f364f139bbee06bc68b6bf3
now新闻台,mitv://generationnexxxt.com:19806/422a5adf1ee24ca49327e0ef45efd5a8
HKC电影台,mitv://generationnexxxt.com:19806/dd45accdb93f42b8ae129d7b4bcc1ba5
凤凰电影台,mitv://generationnexxxt.com:19806/9fd9601feb7545e5941996eaefd3fcc3
HKC新闻台,mitv://generationnexxxt.com:19806/38f9d5c8ce3d48a683ba8cfa9c1ff867
HKC财经资讯台,mitv://generationnexxxt.com:19806/2cc83cd67533439b8ba04a904d819b73
HKC 18,mitv://generationnexxxt.com:19806/2ea5b3599fc94ffbaf94bcec0b1a436d
HKC 603,mitv://generationnexxxt.com:19806/2141e79414314275a21c96d6b9a74933
HKC體育台,mitv://generationnexxxt.com:19806/edd0e12a6a464363a6bf754f4ecc0b99
HKC Sports Plus 1,mitv://generationnexxxt.com:19806/82f71e9986084c86a85807f6fa9ab8a5
HKC综合娱乐台,mitv://generationnexxxt.com:19806/f4815802ef204971b9820b0d6e0bd096
TVB娱乐新闻台,mitv://generationnexxxt.com:19806/8378c6ce158144038e684ac97d498273
翡翠台,mitv://generationnexxxt.com:19806/9e33aa15fae14d189885cd8c7775f019
TVB经典台,mitv://generationnexxxt.com:19806/d63e2f53bfab45a5ab38e79430862268
Thrill,mitv://generationnexxxt.com:19806/20093cc9ef3e4571ae35a29f08682471
明珠台,mitv://generationnexxxt.com:19806/257d9994803542a794790504c2cd0a8e
18台,mitv://generationnexxxt.com:19806/e4667b3da6a54f32a48cc60d1157b195
HKC Sports Plus 3,mitv://generationnexxxt.com:19806/a27709fdfa574a5f9ca52c490a37435b
功夫台(华语),mitv://generationnexxxt.com:19806/651ac61abc284f0598508227494861df
美亚电影台(粤语),mitv://generationnexxxt.com:19806/ffc2cb77727a4ae19ad234de76c840fd
Hands Up,mitv://generationnexxxt.com:19806/71c595ca79444d38bb75c51ed6af947d
粤语片台,mitv://generationnexxxt.com:19806/8df4123dc70e4963ba8e3c70114c1ab9
亚洲剧台,mitv://generationnexxxt.com:19806/33c1ad8276a34a8e8c46965da4f44e19
功夫台,mitv://generationnexxxt.com:19806/0ea9a02ea04e4773a1f3a34ae43f117f
HOY资讯台,mitv://generationnexxxt.com:19806/6e6b83a7ae204666bad78a2300b8ea73
CNN,mitv://generationnexxxt.com:19806/3745a94cbe904b9480d19a1b5dfc6275
TV1,mitv://generationnexxxt.com:19806/d55366e554e64b8b819d06b86019edfc
TV2,mitv://generationnexxxt.com:19806/a932b8b3484c4126954b799b8346422e
TV3,mitv://generationnexxxt.com:19806/468e643a3ec34d139b83f691f5571655
NTV7,mitv://generationnexxxt.com:19806/85ad24391c6045e2aa60fff6271db53c
八度空间,mitv://generationnexxxt.com:19806/5ed75671b2a040ee8df135209f74ec5a
TV9,mitv://generationnexxxt.com:19806/69040523973b44f2893d07a0f702d604
Astro Oasis HD,mitv://generationnexxxt.com:19806/10be3305747747f58710e4d80b1dec47
Astro Warna HD,mitv://generationnexxxt.com:19806/7a9cba7b296849fda48254d544626baf
Astro Citra HD,mitv://generationnexxxt.com:19806/2b3a16935c854dae9adfa591e1ee8c7f
Al-Hijrah,mitv://generationnexxxt.com:19806/0f21aca0c15f4098b1a41dddc6c5ad8b
SUN TV,mitv://generationnexxxt.com:19806/3965050cdd024ece995563ff7ecb8b0b
爱奇艺,mitv://generationnexxxt.com:19806/206defdef43a42fb8ee50238e76ac32c
Astro小太阳,mitv://generationnexxxt.com:19806/783861d0aade442c87f4e0dafaf6eb2a
Astro AEC(备),mitv://generationnexxxt.com:19806/c2d63292987547978c50a2bf2b2f9dc7
Astro双星,mitv://generationnexxxt.com:19806/013a1d56a616457492220b460d7f3b06
Astro全佳,mitv://generationnexxxt.com:19806/ab5ed8a042624947ac6c011ffe041143
天映频道,mitv://generationnexxxt.com:19806/92386b47be6544dca5c536204bddc813
翡翠台(华丽台),mitv://generationnexxxt.com:19806/273abed884a24011a410ddb0ea81cb1a
Astro AOD HD 311,mitv://generationnexxxt.com:19806/8efee211ca7247078c8ab2db528bb701
中天亚洲台,mitv://generationnexxxt.com:19806/362649bea34241588b42dd964bdfb100
TVB星河(粤),mitv://generationnexxxt.com:19806/18d7387cc825496db789bbfa731a5707
天映经典,mitv://generationnexxxt.com:19806/0229760baf0a441bba169ee12d860fb7
Astro欢喜台,mitv://generationnexxxt.com:19806/2988f7d8c6d547118cab3b3495d38ced
KBS World,mitv://generationnexxxt.com:19806/26152f8d16224d09bca6368ae2db3e36
ONE,mitv://generationnexxxt.com:19806/952368f8f4cf42339c651edcb6267585
Colors Hindi,mitv://generationnexxxt.com:19806/2a976a37b59f41cd825b33c77b2d6bfe
TVS,mitv://generationnexxxt.com:19806/ff4e8804209b44a99446a5ee00da6d60
tvN Movies HD,mitv://generationnexxxt.com:19806/0c39816f6b864d57a8a7c9c956e31952
Astro Awani,mitv://generationnexxxt.com:19806/975e906650de41bcbafead57cbf0d880
CGTN,mitv://generationnexxxt.com:19806/b1f0e7e90e654f63a369f11b54428643
BBC World News,mitv://generationnexxxt.com:19806/4500941de27f434cae09553a1f0ed4d1
Al Jazeera English,mitv://generationnexxxt.com:19806/03bc1638cc9f4efe9dde7bf6a456bb5b
CNBC,mitv://generationnexxxt.com:19806/8603e70bd41c4e4a9368407a8a4debdd
Bloomberg TV,mitv://generationnexxxt.com:19806/fbf63c9e85084cf98b7e39d2cd178608
Astro Ceria,mitv://generationnexxxt.com:19806/91018054446042e183ac5f3bdc296f7c
Cartoon Network,mitv://generationnexxxt.com:19806/41375bcbd5094f538f132d3ebb9b2ea6
Nickelodeon,mitv://generationnexxxt.com:19806/f2783df879aa424b9402999698bcd55f
Nick Jr.,mitv://generationnexxxt.com:19806/05c5813e22bf4475b416ec1b35280aa3
Boomerang,mitv://generationnexxxt.com:19806/317cf636b2d448d0867cc1f976064d8a
AXN亚洲,mitv://generationnexxxt.com:19806/8add116b0e7d408f89cdf74897f02aef
KIX,mitv://generationnexxxt.com:19806/04533ea3664e43579573b50db8988450
HITS,mitv://generationnexxxt.com:19806/be8e6fe7ffd343edb7bec5d01de30204
Astro Arena,mitv://generationnexxxt.com:19806/8be35ecb77f54e479652bf42d737f3db
Astro SuperSport,mitv://generationnexxxt.com:19806/f6fc53b0b0fe47ff9bf6d40eec7705f0
Astro SuperSport 2,mitv://generationnexxxt.com:19806/584adade1c8d4db0b2823cd15b3fd0e9
Astro SuperSport 3,mitv://generationnexxxt.com:19806/0ae4bbc8b3e34a75b728ebddd2bbad42
Astro SuperSport 4,mitv://generationnexxxt.com:19806/80de42b5188745979efecd3007daeaa8
beIN Sports 3,mitv://generationnexxxt.com:19806/ade2ee776a684bbca72d37b951bf0d61
WWE,mitv://generationnexxxt.com:19806/157d295b0933470ab2c880d58a7f14ce
Sky News,mitv://generationnexxxt.com:19806/ddc4e102601e4fcfa5432722538cf052
八度空间(备),mitv://generationnexxxt.com:19806/29cfea797cb74df1a9cb0cc59238a95c
Nat Geo Wild,mitv://generationnexxxt.com:19806/789748eb75bb4c3b9522742df4eaee1b
tvN,mitv://generationnexxxt.com:19806/0a5ae3fce9314efba3240158ae4bc485
Drama Sangat,mitv://generationnexxxt.com:19806/fb01d76e86f44cc383851203c964b56d
Berita RTM,mitv://generationnexxxt.com:19806/0425a3d913b04d29a63d5b21dd07ae65
DW,mitv://generationnexxxt.com:19806/da713062bd9d419a913b6e9b1aef8fb6
France24,mitv://generationnexxxt.com:19806/36154fded93f445f863db448232fffa4
SPOTV,mitv://generationnexxxt.com:19806/c028696060a84386bcd49c9e012904d7
beIN Sports,mitv://generationnexxxt.com:19806/46375137a35944a38e828ec083096cd9
TVB娱乐新闻台,mitv://generationnexxxt.com:19806/8378c6ce158144038e684ac97d498273
Astro AEC,mitv://generationnexxxt.com:19806/22641247176547d19a7d7cbb602de7f8
Awesome TV,mitv://generationnexxxt.com:19806/55af036e3c7047cfaea0945f744c3887
Colors Tamil,mitv://generationnexxxt.com:19806/25b451517624493a97f6a96e6a035002
BOO,mitv://generationnexxxt.com:19806/d01f4e4805c743ea82f6623c4859e3c9
TVB经典台,mitv://generationnexxxt.com:19806/d63e2f53bfab45a5ab38e79430862268
ABC Australia,mitv://generationnexxxt.com:19806/84b326c4dc92459abf1f6e0007c8680a
Eurosport HD,mitv://generationnexxxt.com:19806/aa9706fa55c84772a56fd959f7abdd45
Astro SuperSport 5,mitv://generationnexxxt.com:19806/09638fd935964473a20e9260baf2a756
Star Vijay,mitv://generationnexxxt.com:19806/7db9b7f4c8da4e389ede543f1365ea30
Zee Tamil,mitv://generationnexxxt.com:19806/04dc8d8f3b2c43c296c0063b0abff6a5
TVBS亚洲,mitv://generationnexxxt.com:19806/7389e1ced8184a84aa22aeec29be6f85
Astro AOD 352,mitv://generationnexxxt.com:19806/44f1c9066e6c49578f1f23e8d6b157f0
Astro AOD 354,mitv://generationnexxxt.com:19806/8ccb8c35ce9f425ebcd93bc3839c8b0e
Astro Tutor TV SK,mitv://generationnexxxt.com:19806/9e3a1cdae41e4336be38d2cf55b11e8d
Astro Tutor TV SPM,mitv://generationnexxxt.com:19806/2e9fecb7adec4c9fa49b5c939087983c
TA-DAA!,mitv://generationnexxxt.com:19806/3389d62b2e274f3386c6e0fafca66092
eGG Network,mitv://generationnexxxt.com:19806/afc9e147576d41eda59da886563a3d1c
HITS Movies,mitv://generationnexxxt.com:19806/9e0e356e598d4116a9d0f3144516bdfa
SHOWCASE MOVIES,mitv://generationnexxxt.com:19806/beabba149e874fc8a5af2b656d596816
beIN Sports 2,mitv://generationnexxxt.com:19806/1aa64e5459b04b32a0618b7226e0a3c0
Golf Channel,mitv://generationnexxxt.com:19806/69981dfb0eb64aea9b1216f81dd80909
天映频道,mitv://generationnexxxt.com:19806/92386b47be6544dca5c536204bddc813
中天亚洲台,mitv://generationnexxxt.com:19806/362649bea34241588b42dd964bdfb100
TVB星河(粤),mitv://generationnexxxt.com:19806/18d7387cc825496db789bbfa731a5707
天映经典,mitv://generationnexxxt.com:19806/0229760baf0a441bba169ee12d860fb7
KBS World,mitv://generationnexxxt.com:19806/26152f8d16224d09bca6368ae2db3e36
ONE,mitv://generationnexxxt.com:19806/952368f8f4cf42339c651edcb6267585
Colors Hindi,mitv://generationnexxxt.com:19806/2a976a37b59f41cd825b33c77b2d6bfe
CGTN,mitv://generationnexxxt.com:19806/b1f0e7e90e654f63a369f11b54428643
BBC World News,mitv://generationnexxxt.com:19806/4500941de27f434cae09553a1f0ed4d1
CNBC,mitv://generationnexxxt.com:19806/8603e70bd41c4e4a9368407a8a4debdd
Bloomberg TV,mitv://generationnexxxt.com:19806/fbf63c9e85084cf98b7e39d2cd178608
Cartoon Network,mitv://generationnexxxt.com:19806/41375bcbd5094f538f132d3ebb9b2ea6
Nickelodeon,mitv://generationnexxxt.com:19806/f2783df879aa424b9402999698bcd55f
Nick Jr.,mitv://generationnexxxt.com:19806/05c5813e22bf4475b416ec1b35280aa3
Boomerang,mitv://generationnexxxt.com:19806/317cf636b2d448d0867cc1f976064d8a
AXN亚洲,mitv://generationnexxxt.com:19806/8add116b0e7d408f89cdf74897f02aef
HITS,mitv://generationnexxxt.com:19806/be8e6fe7ffd343edb7bec5d01de30204
beIN Sports 3,mitv://generationnexxxt.com:19806/ade2ee776a684bbca72d37b951bf0d61
Mediacorp 5,mitv://generationnexxxt.com:19806/b0798f0bb62f440a92ee49d38967b6d1
Mediacorp 8,mitv://generationnexxxt.com:19806/847cb3132dbe4d2897e276a271c04ec7
Suria,mitv://generationnexxxt.com:19806/0f5728d5794a47dfba667f8c528c006e
Vasantham,mitv://generationnexxxt.com:19806/2e41fd0e25664a4cb5e6debd59ea5d27
CNA,mitv://generationnexxxt.com:19806/7d55ade47df54e3497f9e0fce031943b
Mediacorp U,mitv://generationnexxxt.com:19806/c0adca0b6eff436090ff94baf3238705
Nat Geo Wild,mitv://generationnexxxt.com:19806/789748eb75bb4c3b9522742df4eaee1b
Arirang,mitv://generationnexxxt.com:19806/32ae4206a8494015ba3ca31d76c34a4e
Euronews,mitv://generationnexxxt.com:19806/3169ef1a720442cd91af30a39cc13822
Fight Sports,mitv://generationnexxxt.com:19806/78bd0cc13a8840fcb8af0440258a8357
GEM,mitv://generationnexxxt.com:19806/3f6fedbbb9a24f55bb349e7c75d109c4
Fox News,mitv://generationnexxxt.com:19806/bc919a2d3c4f4a7a9633ded99e69d801
beIN Sports,mitv://generationnexxxt.com:19806/46375137a35944a38e828ec083096cd9
HGTV居家乐活频道,mitv://generationnexxxt.com:19806/61c2aee42c734f499d74af79bb820207
TV5Monde,mitv://generationnexxxt.com:19806/2734d86c3cba4b42b372f394138fe160
东森亚洲卫视,mitv://generationnexxxt.com:19806/4314e2707d7141b78dd0fde4fbf5eae1
Thrill,mitv://generationnexxxt.com:19806/20093cc9ef3e4571ae35a29f08682471
Hub Premier 1,mitv://generationnexxxt.com:19806/4b83405f738042d084055fee7295f311
Hub都会台,mitv://generationnexxxt.com:19806/feb243790576418ea12aa65f7421bb12
TVBS亚洲,mitv://generationnexxxt.com:19806/7389e1ced8184a84aa22aeec29be6f85
Hub娱家,mitv://generationnexxxt.com:19806/4488ebccc495473986b193dab33b7527
NBA,mitv://generationnexxxt.com:19806/65f8f2a53b6342ffb4b8d2a8542bc623
beIN Sports 2,mitv://generationnexxxt.com:19806/1aa64e5459b04b32a0618b7226e0a3c0
Hub Sports 1,mitv://generationnexxxt.com:19806/5b7034df7dcd4ccabcb0137f0991a274
Hub Sports 2,mitv://generationnexxxt.com:19806/2d881919b62242f4930fda32837eb7df
Hub Sports 3,mitv://generationnexxxt.com:19806/6101d0aff0654f73812cb15c57df9f59
Hub Sports 4,mitv://generationnexxxt.com:19806/6324a78a0d4549fc859b68804438bbe6
Hub Sports 5,mitv://generationnexxxt.com:19806/58395e1ea80a40069a5e30c9917d1a97
Hub Premier 2,mitv://generationnexxxt.com:19806/a52cc083e7324b2dbd8090feecc66033
Hub Premier 3,mitv://generationnexxxt.com:19806/758cc0162ca14f8fa7c343d94a60bbaa
Hub Premier 4,mitv://generationnexxxt.com:19806/63c113c5000c33e60c09bddc378b7580	
Hub Premier 5,mitv://generationnexxxt.com:19806/8e3b8175500b492484df4112711ca978
NHK-G综合,mitv://generationnexxxt.com:19806/b5bda0c5078d430c942c13681802be15
NHK-E教育,mitv://generationnexxxt.com:19806/58fb2dd485204529b771b2d8acae096e
日本テレビ,mitv://generationnexxxt.com:19806/6ad6d0d970294894b751bb9be6714fb1
TBSテレビ,mitv://generationnexxxt.com:19806/209a9b54c5064c2fbbd0b9836a28ad6e
テレビ東京,mitv://generationnexxxt.com:19806/51bbd32c263f406d85a05cacd01f062f
フジテレビ,mitv://generationnexxxt.com:19806/17331df7df384a93840003f270f99b43
読売テレビ,mitv://generationnexxxt.com:19806/df1027136d3b4ccb8399435896f10c77
関西テレビ,mitv://generationnexxxt.com:19806/4e41469b0a4848bdbcc0a670412f0df2
KBS京都,mitv://generationnexxxt.com:19806/fb929986f9004ade9ae0d010eb7c0d46
毎日放送,mitv://generationnexxxt.com:19806/643479c21af04293ad48ccf48ea9eee1
朝日放送,mitv://generationnexxxt.com:19806/ef7250cb2aa5496d91d45ad06f2fb1d5
テレビ大阪,mitv://generationnexxxt.com:19806/a56ecb4b782d452286964d9a863b17e5
テレビ朝日,mitv://generationnexxxt.com:19806/4a60e75cead54877bc7d0e2f3afc1727
BS-1,mitv://generationnexxxt.com:19806/dc55be8e1f7649ac9ff0b762c56846aa
BS釣りビジョン,mitv://generationnexxxt.com:19806/65cc4b331feb43ec975cd6626743d2fc
BS日テレ,mitv://generationnexxxt.com:19806/ec48c7c85632469cae7b000167942622
BS朝日,mitv://generationnexxxt.com:19806/23b79683a7b74c6baf1f643bbb782123
BS-TBS,mitv://generationnexxxt.com:19806/19cee2f930cf46c88ee80eda11c9bb7b
BS11,mitv://generationnexxxt.com:19806/0f1b7b82d6574192a644f43e101c5e29
BSフジ,mitv://generationnexxxt.com:19806/302d55abd58f4f8fb79146cf6d177c13
WOWOWプライム,mitv://generationnexxxt.com:19806/5c2d5bb35c284c6bbee94fb0568fd4ae
WOWOWライブ,mitv://generationnexxxt.com:19806/7cc73c16476a40e4b4b10e9172b9ff9f
WOWOWシネマ,mitv://generationnexxxt.com:19806/50a55d71db5b41ba8dfbf1e49fafd739
スター・チャンネル1,mitv://generationnexxxt.com:19806/31599351174a4ef9ab8309f567c38e38
スター・チャンネル2,mitv://generationnexxxt.com:19806/f3da7df8f3f14bbe96ba4b931f2b48aa
スター・チャンネル3,mitv://generationnexxxt.com:19806/3d8b400d2dd44c2a9ff39add631ba83d
BSアニマックス,mitv://generationnexxxt.com:19806/ec8934590f9f43a9977b4c615763f05d
J Sports 1,mitv://generationnexxxt.com:19806/ec9e8e130dc8450f9ab54033ec0838cb
J Sports 2,mitv://generationnexxxt.com:19806/61de10ba994a49ebaedf836962f9065a
J Sports 3,mitv://generationnexxxt.com:19806/00003bb75b5044739df061845fc5ddce
J Sports 4,mitv://generationnexxxt.com:19806/8b6d39de46c7464297947f368e623270
BS12,mitv://generationnexxxt.com:19806/2b8209d5bdd44c2696d51bc158781e38
ゴルフネットワークHD,mitv://generationnexxxt.com:19806/6d430a8f344b4f2abad882e9350aac5a
時代劇専門チャンネル,mitv://generationnexxxt.com:19806/78ea3f42a8104730930a93ac5a5a869b
Music Japan TV,mitv://generationnexxxt.com:19806/f898f0324e99499296ee859f4eb8d3ea
キッズステーションHD,mitv://generationnexxxt.com:19806/80628310ccbf423b8b4a7eb4e1af2a05
ディスカバリーチャンネル,mitv://generationnexxxt.com:19806/ab98b0888ba14ad68180456db43a48bd
ナショナルジオグラフィック,mitv://generationnexxxt.com:19806/0e1814dec67c48adbfe97a6f9a0df2d8
日テレNEWS 24,mitv://generationnexxxt.com:19806/01af57ffc3354d66a320ebb2edd87262
旅チャンネル,mitv://generationnexxxt.com:19806/9d587c6310714b42bad0eba86ca501c4
チャンネル銀河,mitv://generationnexxxt.com:19806/708c0b0d85dd45acba478d21c0ace2f6
Arirang,mitv://generationnexxxt.com:19806/32ae4206a8494015ba3ca31d76c34a4e
KBS1,mitv://generationnexxxt.com:19806/ffbb98a195ce4646b450482011ab1f39
KBS2,mitv://generationnexxxt.com:19806/a60d87656be445cbbdd549af1bba1148
KBS Drama,mitv://generationnexxxt.com:19806/b87ff391346d41adabdff2557eb1b468
KBS Joy,mitv://generationnexxxt.com:19806/61eb591517014f02b627a6fa4479b45d
SBS,mitv://generationnexxxt.com:19806/6751677afd4345bfac27cfff31713854
SBS Biz,mitv://generationnexxxt.com:19806/01dbd835b88940cd91eb45190a71c1de
JTBC,mitv://generationnexxxt.com:19806/132ccdb9253f4c4898e685a841b896ea
EBS,mitv://generationnexxxt.com:19806/c74fd79cd39a4ce382c1fe22090ffb73
YTN,mitv://generationnexxxt.com:19806/9a05e5a1bc4c4f8f871bc4246475360b
Mnet,mitv://generationnexxxt.com:19806/4d5973be862e438f909863fcfc0a7e62
tvN,mitv://generationnexxxt.com:19806/0a5ae3fce9314efba3240158ae4bc485
OCN,mitv://generationnexxxt.com:19806/5fce44dd2efb4d72879eb4f033db50a7
OCN Movies,mitv://generationnexxxt.com:19806/bf871edfcc0f476caa7d98d1b9b01cae
TV Chosun,mitv://generationnexxxt.com:19806/113336cc563149d598fad5b95277a955
MBC,mitv://generationnexxxt.com:19806/bf799ab550fc4a24805351d49d5b61a2
MBN,mitv://generationnexxxt.com:19806/a2c12bef09204f61adf2b42e1c529bf6
Tooniverse,mitv://generationnexxxt.com:19806/90c2674d219745d5b32cfc5053a01016
SPOTV,mitv://generationnexxxt.com:19806/441089d1c6864877a82d8dbde582d645
SPOTV 2,mitv://generationnexxxt.com:19806/d33cf3ddad0444cfaf5118ccc834c1e7
JTBC GOLF,mitv://generationnexxxt.com:19806/02b7cdb589a64a05850e5eda673b041d
tvN Movies HD,mitv://generationnexxxt.com:19806/0c39816f6b864d57a8a7c9c956e31952
Indosiar,mitv://generationnexxxt.com:19806/ed5c8b2ba43343848090d71a5b9c767b
SCTV,mitv://generationnexxxt.com:19806/dd24ad22f980428780e1670ce82324f2
RCTI,mitv://generationnexxxt.com:19806/5072885321ea4690a2db5d548eaaa52f
Channel 5,mitv://generationnexxxt.com:19806/1045ae1287b44480b9d6f511acb6a7b1
NBT,mitv://generationnexxxt.com:19806/960f748e986045cea386b0c70e63b423
TNN 16,mitv://generationnexxxt.com:19806/714715de5cfd4051a54105cc4ef30af6
JKN 18,mitv://generationnexxxt.com:19806/0df418fddf7446a5869f69f1418415d6
Voice TV,mitv://generationnexxxt.com:19806/08721ce1643b41fba96c063b57a1f8f3
Nation TV,mitv://generationnexxxt.com:19806/7d87284193a64a7f9f518849c02d7441
Workpoint TV,mitv://generationnexxxt.com:19806/68f16fa3c8b34dc89e2134261293b583
true4U,mitv://generationnexxxt.com:19806/20a3f56a870340c49b40ce4a1bc5c5eb
GMM 25,mitv://generationnexxxt.com:19806/f4228beab2744d07a67571c5e28f084e
Channel 8,mitv://generationnexxxt.com:19806/119678a4b6e54d1bac8b215c21d5ad13
Mono 29,mitv://generationnexxxt.com:19806/01a45cae5b314975b90bb3cfba296f17
MCOT,mitv://generationnexxxt.com:19806/73b0a7b586af42f39db7fcdb646e89d8
ONE,mitv://generationnexxxt.com:19806/46709f19c5a2466f9ae889037f66615a
Thairath TV,mitv://generationnexxxt.com:19806/fac4fd9a35664af5aab7d56c45d3233c
Channel 3,mitv://generationnexxxt.com:19806/e8cd7262c3bb49c8bb75662c3163f597
Amarin TV,mitv://generationnexxxt.com:19806/939a7081305144509ddc2f35b05d61e6
Channel 7,mitv://generationnexxxt.com:19806/4fd125eb5c9f4a95aa81eca2a8cec808
PPTV,mitv://generationnexxxt.com:19806/5a975bc858f84e7eb8cf78286c3461d9
Boomerang,mitv://generationnexxxt.com:19806/9bca576c3c2e4b5cb3fbb69a462588e1
Thai Parliament TV,mitv://generationnexxxt.com:19806/00d7be2109344cf3a3cabc8f345c4408
Thai PBS,mitv://generationnexxxt.com:19806/69da05f9164b4d4a9b7027539578b5ec
News 1,mitv://generationnexxxt.com:19806/e78a0690ad344c95946fd8ad988de2e0
Channel 4050,mitv://generationnexxxt.com:19806/33cd96332eef4ef0b781716e9ca4e2a6
TVB Thai,mitv://generationnexxxt.com:19806/e9d8980dfdea4d059b62fe6dfd2de092
Bluesky,mitv://generationnexxxt.com:19806/a4d121356b034c7f95ed7b55aee8b9bb
Top News,mitv://generationnexxxt.com:19806/845fb3c3c97a44aeab8fb8d227636c7b
CNN,mitv://generationnexxxt.com:19806/3745a94cbe904b9480d19a1b5dfc6275
CNBC,mitv://generationnexxxt.com:19806/8603e70bd41c4e4a9368407a8a4debdd
Bloomberg TV,mitv://generationnexxxt.com:19806/fbf63c9e85084cf98b7e39d2cd178608
ESPN,mitv://generationnexxxt.com:19806/eb2c51ee510841a9b7845b6d13309e9c
CBSN,mitv://generationnexxxt.com:19806/a90df52b92804807b6c08cdbbead4ce4
Fox News,mitv://generationnexxxt.com:19806/bc919a2d3c4f4a7a9633ded99e69d801
Food Network,mitv://generationnexxxt.com:19806/59775ab5a3ac40be8aaf5db50417b2c6
NBA,mitv://generationnexxxt.com:19806/65f8f2a53b6342ffb4b8d2a8542bc623
新时代1(西部),mitv://generationnexxxt.com:19806/b1ccf61be69c4586bcef99336ff297c6
新时代2,mitv://generationnexxxt.com:19806/d3875eccaa1d4b07a633402fac5cb999
新时代1(东部),mitv://generationnexxxt.com:19806/90cf0a71709d458bb17695dd32d569df
城市电视,mitv://generationnexxxt.com:19806/4ed9cf9666d7430d94e6f4f8c26986f6
Fox News,mitv://generationnexxxt.com:19806/0ca77bf69d4a4777a2e145f1158814a3
BBC World News,mitv://generationnexxxt.com:19806/e47a7f3ef6714885a39d5eedebffd158
CNN USA,mitv://generationnexxxt.com:19806/0bb7d854f1404400bfa64c6fd66403a5
CBC News,mitv://generationnexxxt.com:19806/f4f2d24eb46f42c693d83e97290457e8
MSNBC,mitv://generationnexxxt.com:19806/f41402a7080d4530bb718ca01c1e6f61
CTV News,mitv://generationnexxxt.com:19806/be706e24ed1f4245876b3e0ddc697571
Business News Network,mitv://generationnexxxt.com:19806/40cf9cc6515c4770979837c8974c112c
CP24,mitv://generationnexxxt.com:19806/5efde580fc9e4f699ccaba83c1a97085
The Weather Network,mitv://generationnexxxt.com:19806/feee91e7ee4541c3a24b385477b35378
The Weather Channel,mitv://generationnexxxt.com:19806/bd27010686a04dd9bcd17fcedce18344
KOMO 4 TV,mitv://generationnexxxt.com:19806/6412af0a00060f714ad0771640fa32d4
CNN,mitv://generationnexxxt.com:19806/3745a94cbe904b9480d19a1b5dfc6275
无线新闻台(备),mitv://generationnexxxt.com:19806/bd60966852d044a194e8136c596219fb
无线新闻台,mitv://generationnexxxt.com:19806/a532a9bc47be4ea7892f61843eeaf4fd
无线财经·资讯台,mitv://generationnexxxt.com:19806/a730755fb80b4e5aa7923bdd52e88f22
CGTN,mitv://generationnexxxt.com:19806/b1f0e7e90e654f63a369f11b54428643
BBC World News,mitv://generationnexxxt.com:19806/4500941de27f434cae09553a1f0ed4d1
Al Jazeera English,mitv://generationnexxxt.com:19806/03bc1638cc9f4efe9dde7bf6a456bb5b
CNBC,mitv://generationnexxxt.com:19806/8603e70bd41c4e4a9368407a8a4debdd
Bloomberg TV,mitv://generationnexxxt.com:19806/fbf63c9e85084cf98b7e39d2cd178608
CNA,mitv://generationnexxxt.com:19806/7d55ade47df54e3497f9e0fce031943b
壹电视新闻台,mitv://generationnexxxt.com:19806/a84b87402809424bb947aea015bd6f34
年代新闻,mitv://generationnexxxt.com:19806/f721025fa5eb4938925ffd40f311b413
now新闻台,mitv://generationnexxxt.com:19806/422a5adf1ee24ca49327e0ef45efd5a8
东森新闻台,mitv://generationnexxxt.com:19806/6734343eb91244a8b6752ce896b2402f
中天新闻台,mitv://generationnexxxt.com:19806/c88a7e7e25334800becd67d8aca62756
民视新闻台,mitv://generationnexxxt.com:19806/64ef45a872254806bc04be427324fa36
三立新闻台,mitv://generationnexxxt.com:19806/7109c60c1ae14727873d26cde90a38c5
TVBS新闻台,mitv://generationnexxxt.com:19806/76f09b45977d45e2a2f24b27520f0138
东森财经新闻台,mitv://generationnexxxt.com:19806/58b140e84a6f429b8b1dc309836c2397
非凡新闻台,mitv://generationnexxxt.com:19806/db76f72df6cc4a58b5c8142605e74d43
TNN 16,mitv://generationnexxxt.com:19806/714715de5cfd4051a54105cc4ef30af6
JKN 18,mitv://generationnexxxt.com:19806/0df418fddf7446a5869f69f1418415d6
三立iNEWS,mitv://generationnexxxt.com:19806/0441a944caed4cc3b09dc08fdff718ad
Sky News,mitv://generationnexxxt.com:19806/ddc4e102601e4fcfa5432722538cf052
DW,mitv://generationnexxxt.com:19806/da713062bd9d419a913b6e9b1aef8fb6
Euronews,mitv://generationnexxxt.com:19806/3169ef1a720442cd91af30a39cc13822
France24,mitv://generationnexxxt.com:19806/36154fded93f445f863db448232fffa4
HKC新闻台,mitv://generationnexxxt.com:19806/38f9d5c8ce3d48a683ba8cfa9c1ff867
非凡商业台,mitv://generationnexxxt.com:19806/f1e322aa02de4d33bd1d8fe7a904ea0f
HKC财经资讯台,mitv://generationnexxxt.com:19806/2cc83cd67533439b8ba04a904d819b73
CBSN,mitv://generationnexxxt.com:19806/a90df52b92804807b6c08cdbbead4ce4
Fox News,mitv://generationnexxxt.com:19806/bc919a2d3c4f4a7a9633ded99e69d801
寰宇新闻台,mitv://generationnexxxt.com:19806/c026ff52334f43e09d98ad3280db22ef
NHK新闻资讯台,mitv://generationnexxxt.com:19806/92867b4fe30b4dd491a01d448afc8062
NDTV,mitv://generationnexxxt.com:19806/7b86d682dfcf4b51949751ec1cc0757a
ABC Australia,mitv://generationnexxxt.com:19806/84b326c4dc92459abf1f6e0007c8680a
台视新闻台,mitv://generationnexxxt.com:19806/ef8ee9e7a5f54528b1016a192376681e
寰宇新闻台湾台,mitv://generationnexxxt.com:19806/c6ca3ab80f4245f18380f98b9519d17a
台视财经台,mitv://generationnexxxt.com:19806/ec9247281c984a6e980b1d0b1db98002
东森新闻台(备),mitv://generationnexxxt.com:19806/0c90cd060e114bdfa4380f3dff8e1a73
Fox News,mitv://generationnexxxt.com:19806/0ca77bf69d4a4777a2e145f1158814a3
BBC World News,mitv://generationnexxxt.com:19806/e47a7f3ef6714885a39d5eedebffd158
CNN USA,mitv://generationnexxxt.com:19806/0bb7d854f1404400bfa64c6fd66403a5
CBC News,mitv://generationnexxxt.com:19806/f4f2d24eb46f42c693d83e97290457e8
MSNBC,mitv://generationnexxxt.com:19806/f41402a7080d4530bb718ca01c1e6f61
CTV News,mitv://generationnexxxt.com:19806/be706e24ed1f4245876b3e0ddc697571
Business News Network,mitv://generationnexxxt.com:19806/40cf9cc6515c4770979837c8974c112c
CP24,mitv://generationnexxxt.com:19806/5efde580fc9e4f699ccaba83c1a97085
The Weather Network,mitv://generationnexxxt.com:19806/feee91e7ee4541c3a24b385477b35378
The Weather Channel,mitv://generationnexxxt.com:19806/bd27010686a04dd9bcd17fcedce18344
MTV,mitv://generationnexxxt.com:19806/392ad1aba89e48ddb53090459370e611
Music Japan TV,mitv://generationnexxxt.com:19806/f898f0324e99499296ee859f4eb8d3ea
MTV Live,mitv://generationnexxxt.com:19806/3e9d47d3aadb4be1ba8510cdb3b0302e
Mezzo Live,mitv://generationnexxxt.com:19806/3414148382a441c6bb4aa392837c8428
CMusic,mitv://generationnexxxt.com:19806/5627acd693ff47e5966c985bd70c459b
CCTV5,mitv://generationnexxxt.com:19806/3b142cffb4924301b28c5f605630801e
CCTV5+,mitv://generationnexxxt.com:19806/523c903908b7424f9f71bf77a2427b71
魅力足球,mitv://generationnexxxt.com:19806/8c75b45557f64dbba65257a5c9096077
五星体育,mitv://generationnexxxt.com:19806/959661cff0a04f3992d128dd93281579
广东体育,mitv://generationnexxxt.com:19806/e9e2075a549c4f98802b4c029614289d
Sky Sports Golf,mitv://generationnexxxt.com:19806/f7979f7719e84f04b70cb3ea3151553c
Sky Sports Premier League,mitv://generationnexxxt.com:19806/4f70c7b9ee6340949293e813bdb4b7fc
Astro Arena,mitv://generationnexxxt.com:19806/8be35ecb77f54e479652bf42d737f3db
Astro SuperSport,mitv://generationnexxxt.com:19806/f6fc53b0b0fe47ff9bf6d40eec7705f0
Astro SuperSport 2,mitv://generationnexxxt.com:19806/584adade1c8d4db0b2823cd15b3fd0e9
Astro SuperSport 3,mitv://generationnexxxt.com:19806/0ae4bbc8b3e34a75b728ebddd2bbad42
Astro SuperSport 4,mitv://generationnexxxt.com:19806/80de42b5188745979efecd3007daeaa8
beIN Sports 3,mitv://generationnexxxt.com:19806/ade2ee776a684bbca72d37b951bf0d61
WWE,mitv://generationnexxxt.com:19806/157d295b0933470ab2c880d58a7f14ce
纬来育乐台,mitv://generationnexxxt.com:19806/5733ed9a251e4ea7b9b7414cbbc41379
纬来体育台,mitv://generationnexxxt.com:19806/cfe7149c529f4e449e1aa1dc27eb1bc2
ELEVEN体育1台,mitv://generationnexxxt.com:19806/c098b9305dcb49fa9fa3042f977c7ad7
Z频道,mitv://generationnexxxt.com:19806/41d8f2ded4a14c019e1a06adfcb7259c
J Sports 1,mitv://generationnexxxt.com:19806/ec9e8e130dc8450f9ab54033ec0838cb
J Sports 2,mitv://generationnexxxt.com:19806/61de10ba994a49ebaedf836962f9065a
J Sports 3,mitv://generationnexxxt.com:19806/00003bb75b5044739df061845fc5ddce
J Sports 4,mitv://generationnexxxt.com:19806/8b6d39de46c7464297947f368e623270
Skynet Sports HD,mitv://generationnexxxt.com:19806/a058e07556204a1ab4287b441eb54e05
Skynet Sports 2,mitv://generationnexxxt.com:19806/fb0b368a0dce4d7c8b9002a3180d8d2f
Skynet Sports 5,mitv://generationnexxxt.com:19806/cfb47a7ba5d2491ebe8b354e58c1cc43
Skynet Sports 6,mitv://generationnexxxt.com:19806/b5ee6b4f6bb543cd8a1f426faa16821a
Fight Sports,mitv://generationnexxxt.com:19806/78bd0cc13a8840fcb8af0440258a8357
ESPN,mitv://generationnexxxt.com:19806/eb2c51ee510841a9b7845b6d13309e9c
HKC 18,mitv://generationnexxxt.com:19806/2ea5b3599fc94ffbaf94bcec0b1a436d
HKC 603,mitv://generationnexxxt.com:19806/2141e79414314275a21c96d6b9a74933
HKC體育台,mitv://generationnexxxt.com:19806/edd0e12a6a464363a6bf754f4ecc0b99
HKC Sports Plus 1,mitv://generationnexxxt.com:19806/82f71e9986084c86a85807f6fa9ab8a5
爱尔达体育1台(备),mitv://generationnexxxt.com:19806/368166544cf14a3782f3e5a5f05bb2aa
爱尔达体育2台,mitv://generationnexxxt.com:19806/a71b4dd6d0a74dcbb82750b7b24a8b71
TRACE Sport Stars,mitv://generationnexxxt.com:19806/166cf0f094ca46f68946e08837c0a191
博斯高球,mitv://generationnexxxt.com:19806/39bbedf85f5249918fd3328d0e4c8407
博斯高球二台,mitv://generationnexxxt.com:19806/9ad2e789a1f24414b5ba3bce8225638f
博斯网球台,mitv://generationnexxxt.com:19806/eabbb39b2df84ec7b180dd07d003e801
博斯魅力网,mitv://generationnexxxt.com:19806/79e1743aa91c4a3f9b356d3e623aaa1e
博斯无限台,mitv://generationnexxxt.com:19806/388b178d61794d16a7f53bbea14a1d82
博斯无限二台,mitv://generationnexxxt.com:19806/c72f3545e44c43ada003f77cb4fbfcad
SPOTV,mitv://generationnexxxt.com:19806/c028696060a84386bcd49c9e012904d7
博斯运动,mitv://generationnexxxt.com:19806/69f6752a9d7b43d4b82c649b645a6028
ELEVEN体育2台,mitv://generationnexxxt.com:19806/917e17cbb4d34bcba80691ab6c3a59be
博斯运动二台,mitv://generationnexxxt.com:19806/13330f2946b14921ac4ba04f38403f80
beIN Sports,mitv://generationnexxxt.com:19806/46375137a35944a38e828ec083096cd9
Eurosport HD,mitv://generationnexxxt.com:19806/aa9706fa55c84772a56fd959f7abdd45
Hub Premier 1,mitv://generationnexxxt.com:19806/4b83405f738042d084055fee7295f311
Astro SuperSport 5,mitv://generationnexxxt.com:19806/09638fd935964473a20e9260baf2a756
HKC Sports Plus 3,mitv://generationnexxxt.com:19806/a27709fdfa574a5f9ca52c490a37435b
NBA,mitv://generationnexxxt.com:19806/65f8f2a53b6342ffb4b8d2a8542bc623
eGG Network,mitv://generationnexxxt.com:19806/afc9e147576d41eda59da886563a3d1c
CCTV16,mitv://generationnexxxt.com:19806/1fad65cc089b41fb9f35b66bc73800e4
beIN Sports 2,mitv://generationnexxxt.com:19806/1aa64e5459b04b32a0618b7226e0a3c0
爱尔达体育1台,mitv://generationnexxxt.com:19806/8fc9a408fa54413e8757df91344c805d
爱尔达体育3台,mitv://generationnexxxt.com:19806/6a94fcef07d64f50a1edf2837f398cd4
Hub Sports 1,mitv://generationnexxxt.com:19806/5b7034df7dcd4ccabcb0137f0991a274
Hub Sports 2,mitv://generationnexxxt.com:19806/2d881919b62242f4930fda32837eb7df
Hub Sports 3,mitv://generationnexxxt.com:19806/6101d0aff0654f73812cb15c57df9f59
Hub Sports 4,mitv://generationnexxxt.com:19806/6324a78a0d4549fc859b68804438bbe6
Hub Sports 5,mitv://generationnexxxt.com:19806/58395e1ea80a40069a5e30c9917d1a97
Hub Premier 2,mitv://generationnexxxt.com:19806/a52cc083e7324b2dbd8090feecc66033
Hub Premier 3,mitv://generationnexxxt.com:19806/758cc0162ca14f8fa7c343d94a60bbaa
Hub Premier 4,mitv://generationnexxxt.com:19806/63c113c5000c33e60c09bddc378b7580	
Hub Premier 5,mitv://generationnexxxt.com:19806/8e3b8175500b492484df4112711ca978
Sky Sports F1,mitv://generationnexxxt.com:19806/8d0465b1adcc4d5aa8a9fd3c6573da3c
Sky Sports Arena,mitv://generationnexxxt.com:19806/8af1b56b67504c4fbf3151129ab9c4d8
Sky Sports Main Event,mitv://generationnexxxt.com:19806/347b0cb9ec284f25883567a0e9fee211
Sky Sports Cricket,mitv://generationnexxxt.com:19806/4c8af69d907a45a5a2fc2977409bf3ef
Sky Sports Action,mitv://generationnexxxt.com:19806/832cfec045fd458f9a490f07770bb879
Golf Channel,mitv://generationnexxxt.com:19806/69981dfb0eb64aea9b1216f81dd80909
CCTV9,mitv://generationnexxxt.com:19806/5f684b66c63e4e13a64d397bdcfc6080
国家地理频道,mitv://generationnexxxt.com:19806/1b1f8ec66dc544ec821769097fa5306d
探索频道,mitv://generationnexxxt.com:19806/68bda999f56b477ca00f2b25b98127ff
TLC旅游生活,mitv://generationnexxxt.com:19806/f90ee29629994e3d9086b1f80c3b6979
动物星球,mitv://generationnexxxt.com:19806/e62bbeb1ff7f411e8276d7e6d798121d
Nat Geo Wild,mitv://generationnexxxt.com:19806/789748eb75bb4c3b9522742df4eaee1b
达文西频道,mitv://generationnexxxt.com:19806/ae2b128e602241c2b3833332e1aeb694
国家地理高画质野生频道,mitv://generationnexxxt.com:19806/3b9bf42549604a2ab036b392b5108cf7
BBC Earth,mitv://generationnexxxt.com:19806/3c2c6ac179f448f5ae5d9cc8abc5efb4
Discovery Asia,mitv://generationnexxxt.com:19806/63ec7853effa4011a77569913c8fe5e7
Discovery科学频道,mitv://generationnexxxt.com:19806/7157f2127328417daedb7083ac5e7ea2
DMAX,mitv://generationnexxxt.com:19806/40a2d5922fb24a5f96900536dc212cbf
EVE,mitv://generationnexxxt.com:19806/cb003e49d5224ce09856f1c1770c32e5
历史频道,mitv://generationnexxxt.com:19806/de642a93cfae4af18c8e47af38c796ce
罪案侦缉频道,mitv://generationnexxxt.com:19806/86f73b65769a48bbaf9bd83fd430df8a
BBC Lifestyle,mitv://generationnexxxt.com:19806/f030035e810744eebe54fb9a30b6497b
LUXE TV,mitv://generationnexxxt.com:19806/63c2fe237e75428eaaea2ae9fd1750ab
Lifetime,mitv://generationnexxxt.com:19806/adde7c4d8aaa48638f0ec9d36f5c2c93
KLT-靖天国际台,mitv://generationnexxxt.com:19806/e4a17f356b044d28b014797d13fd9d58
HGTV居家乐活频道,mitv://generationnexxxt.com:19806/61c2aee42c734f499d74af79bb820207
Love Nature,mitv://generationnexxxt.com:19806/e847a5ed513f4f7d84611b80996078f4
美食星球,mitv://generationnexxxt.com:19806/48a5325e74354deaa422edba7a4a75b6
亚洲美食频道,mitv://generationnexxxt.com:19806/1ba5704443ec4f0aa32e9eb079008758
Food Network,mitv://generationnexxxt.com:19806/59775ab5a3ac40be8aaf5db50417b2c6
亚洲旅游台,mitv://generationnexxxt.com:19806/b560014689fa4f339bf68f059ca51255
EYE TV旅游台,mitv://generationnexxxt.com:19806/0b1bdbbf73a5429ead599b28ba908e94
时尚频道,mitv://generationnexxxt.com:19806/f6d54ea8fafc433ab2c56d4929cbdd75
TV5MONDE Style 生活时尚,mitv://generationnexxxt.com:19806/50a3974dcf7e431c91e8f212d708cd0f
Travel Channel,mitv://generationnexxxt.com:19806/15369bd05a294d3087377848d53a0a98
CCTV14,mitv://generationnexxxt.com:19806/85745f450c384b1e9a8b632423828e4f
CN卡通频道,mitv://generationnexxxt.com:19806/96e4992ec1f74491bc997bc076d01513
星空卫视,mitv://generationnexxxt.com:19806/940e43349642479a843d8b9bc53c47d3
动漫秀场,mitv://generationnexxxt.com:19806/606e6f2ed605464398838a28a8eedcca
MOMO亲子台,mitv://generationnexxxt.com:19806/b90246990ef64289bd968f96bea74856
Astro小太阳,mitv://generationnexxxt.com:19806/783861d0aade442c87f4e0dafaf6eb2a
Astro Ceria,mitv://generationnexxxt.com:19806/91018054446042e183ac5f3bdc296f7c
Cartoon Network,mitv://generationnexxxt.com:19806/41375bcbd5094f538f132d3ebb9b2ea6
Nickelodeon,mitv://generationnexxxt.com:19806/f2783df879aa424b9402999698bcd55f
Nick Jr.,mitv://generationnexxxt.com:19806/05c5813e22bf4475b416ec1b35280aa3
Boomerang,mitv://generationnexxxt.com:19806/317cf636b2d448d0867cc1f976064d8a
Animax,mitv://generationnexxxt.com:19806/8e83059fe3fa4ecea3444042e2be0b33
尼克儿童频道,mitv://generationnexxxt.com:19806/4442db388c7e45b096f14f00689142db
靖洋卡通Nice Bingo,mitv://generationnexxxt.com:19806/fc24ac1d80b64519a8712056763a29f0
靖天卡通台,mitv://generationnexxxt.com:19806/18620812c7a64abc84bc24ed2de13002
达文西频道,mitv://generationnexxxt.com:19806/ae2b128e602241c2b3833332e1aeb694
Nick Jr.,mitv://generationnexxxt.com:19806/61f8c82914c54de59bb613dd349c8977
Cbeebies,mitv://generationnexxxt.com:19806/1e06e59d527c47709205564b212b884a
Dreamworks,mitv://generationnexxxt.com:19806/f64a7bd5c5ae46f498899bf8f79a721c
Hands Up,mitv://generationnexxxt.com:19806/71c595ca79444d38bb75c51ed6af947d
CCTV6,mitv://generationnexxxt.com:19806/fabe340b1cc94bc8a42db4844fb7e497
天映频道,mitv://generationnexxxt.com:19806/92386b47be6544dca5c536204bddc813
天映经典,mitv://generationnexxxt.com:19806/0229760baf0a441bba169ee12d860fb7
tvN Movies HD,mitv://generationnexxxt.com:19806/0c39816f6b864d57a8a7c9c956e31952
HKC电影台,mitv://generationnexxxt.com:19806/dd45accdb93f42b8ae129d7b4bcc1ba5
凤凰电影台,mitv://generationnexxxt.com:19806/9fd9601feb7545e5941996eaefd3fcc3
卫视电影台,mitv://generationnexxxt.com:19806/67dbc447e8aa43148cef9f0c78332ef1
东森电影台,mitv://generationnexxxt.com:19806/d1fecc0f332d4fbfac056b773a0243ca
纬来电影台,mitv://generationnexxxt.com:19806/2c7618b1e7364232a9664b275ff6c665
龙祥电影,mitv://generationnexxxt.com:19806/7672f3ff066948cbbef392effa510141
HBO,mitv://generationnexxxt.com:19806/2b8e0f4e06264ee8914bb4616669411e
东森洋片台,mitv://generationnexxxt.com:19806/397fa5a566a04b6c92260c5cf7618715
AXN,mitv://generationnexxxt.com:19806/ca535eda852d4225922214a23656dc71
好莱坞电影台,mitv://generationnexxxt.com:19806/6e400e7480aa48a0a07595343f01fca8
纬来育乐台,mitv://generationnexxxt.com:19806/5733ed9a251e4ea7b9b7414cbbc41379
HBO强档巨献,mitv://generationnexxxt.com:19806/c3f10bb71ea74bb68c9390b3cc7c50c0
HBO原创巨献,mitv://generationnexxxt.com:19806/69492ac4bba34a11a8de21792a376baf
星卫HD电影台,mitv://generationnexxxt.com:19806/d050c38fac8c411aaa9b9a300aeaa1e4
靖天映画,mitv://generationnexxxt.com:19806/6caa39c31eef4f81bfbad1bde5618aef
靖天电影台,mitv://generationnexxxt.com:19806/37f508458d18414ea7ea39ef3094e33a
WARNER TV,mitv://generationnexxxt.com:19806/d4639fbf11424dcf8f2614071d57b567
Star Movies HD,mitv://generationnexxxt.com:19806/3fbe4196c67f45ff9312d1617df03ac4
壹电视电影台,mitv://generationnexxxt.com:19806/0c547d4f29db4bef9790f259ee669818
采昌影剧台,mitv://generationnexxxt.com:19806/31c35d1e653f48a6a1ef0ae3afc21216
BOO,mitv://generationnexxxt.com:19806/d01f4e4805c743ea82f6623c4859e3c9
Thrill,mitv://generationnexxxt.com:19806/20093cc9ef3e4571ae35a29f08682471
功夫台(华语),mitv://generationnexxxt.com:19806/651ac61abc284f0598508227494861df
HITS Movies,mitv://generationnexxxt.com:19806/9e0e356e598d4116a9d0f3144516bdfa
SHOWCASE MOVIES,mitv://generationnexxxt.com:19806/beabba149e874fc8a5af2b656d596816
影迷数位电影台,mitv://generationnexxxt.com:19806/ff075ec54a154e2bb7d95b92c89dff59
美亚电影台(粤语),mitv://generationnexxxt.com:19806/ffc2cb77727a4ae19ad234de76c840fd
CHC动作电影,mitv://generationnexxxt.com:19806/1c38c3ebe98f4365978a213d84d1d11b
Star Movies Gold,mitv://generationnexxxt.com:19806/eed82c74928f497080ecffdd16b59623
CHC高清电影,mitv://generationnexxxt.com:19806/dd917220abee49abbee90ffa427117ce
CHC家庭影院,mitv://generationnexxxt.com:19806/502a4e7d1559401dbf6d8fbbd765d4a9
东森戏剧台,mitv://generationnexxxt.com:19806/0d18b04f93744f73950afcdc9224850a
八大戏剧台,mitv://generationnexxxt.com:19806/9e87ea86229049bbb244c0338885eaeb
纬来戏剧台,mitv://generationnexxxt.com:19806/75f0a53f27384cddb1e0596709325873
三立戏剧台,mitv://generationnexxxt.com:19806/410a9eec5c1d4c5191ee06a59b828a58
龙华戏剧,mitv://generationnexxxt.com:19806/62a2bca1f9f844688a5c1bb78a163e13
靖洋戏剧台,mitv://generationnexxxt.com:19806/146f03a272894fdd97a4b57059c139e3
EYE TV戏剧台,mitv://generationnexxxt.com:19806/d95a1bbfe35f4b9ba69f50ce0d2e4618
爱尔达影剧台,mitv://generationnexxxt.com:19806/3ead6bd41aaa4df2be79322afa7a3841
Hub娱家,mitv://generationnexxxt.com:19806/4488ebccc495473986b193dab33b7527
亚洲剧台,mitv://generationnexxxt.com:19806/33c1ad8276a34a8e8c46965da4f44e19
