☕️  热门推荐,#genre#
凤凰资讯,http://112.102.214.193:65530/live/fhzx/index.m3u8
凤凰资讯,http://yuniptvunql.chinayungu.cn:65530/live/fhzx/index.m3u8
凤凰资讯,https://playtv-live.ifeng.com/live/06OLEEWQKN4.flv
凤凰资讯,http://playtv-live.ifeng.com/live/06OLEEWQKN4.flv
凤凰资讯,http://playtimeshift-live.ifeng.com/timeshift/live/06OLEEWQKN4/timeshift.m3u8?delay=33942
凤凰中文,http://112.102.214.193:65530/live/fhzw/index.m3u8
凤凰中文,http://yuniptvunql.chinayungu.cn:65530/live/fhzw/index.m3u8
凤凰中文,http://123.51.230.108:8515/.m3u8
凤凰中文,https://playtv-live.ifeng.com/live/06OLEGEGM4G.flv
凤凰中文,http://hwrr.jx.chinamobile.com:8080/PLTV/88888888/224/3221226248/index.m3u8
凤凰中文,http://playtimeshift-live.ifeng.com/timeshift/live/06OLEGEGM4G/timeshift.m3u8?delay=1644
凤凰香港,http://39.135.138.58:18890/PLTV/88888888/224/3221226251/index.m3u8
凤凰香港,http://hwrr.jx.chinamobile.com:8080/PLTV/88888888/224/3221226251/index.m3u8
香港卫视,http://zhibo.hkstv.tv/livestream/mutfysrq/playlist.m3u8
香港卫视,http://zhibo.hkstv.tv/livestream/mutfysrq/playlist.m3u8?wsSession=3c732f93c14e1bc0c07641df-156388849014752&wsIPSercert=8de23d0849e78e3b16ec92a809235421&wsMonitor=0
香港卫视,http://107.151.203.111:2209/135/hk.php?id=hkws
凤凰中文,http://play-live.ifeng.com/live/06OLEGEGM4G.m3u8
足球频道,https://nmglive.imfc.cn/5n1r1c/182396.m3u8
凤凰中文,http://hwrr.jx.chinamobile.com:8080/PLTV/88888888/224/3221226248/index.m3u8
凤凰资讯,http://hwrr.jx.chinamobile.com:8080/PLTV/88888888/224/3221226274/index.m3u8
凤凰香港,http://hwrr.jx.chinamobile.com:8080/PLTV/88888888/224/3221226251/index.m3u8
凤凰中文,http://39.135.138.58:18890/PLTV/88888888/224/3221226248/index.m3u8
凤凰资讯,http://39.135.138.58:18890/PLTV/88888888/224/3221226274/index.m3u8
凤凰香港,http://39.135.138.58:18890/PLTV/88888888/224/3221226251/index.m3u8
凤凰香港,http://[2409:8087:3869:8021:1001::e5]:6610/PLTV/88888910/224/3221226251/index.m3u8
凤凰资讯,http://playtv-live.ifeng.com:80/live/06OLEEWQKN4.m3u8
凤凰香港,http://[2409:8087:3869:8021:1001::e5]:6610/PLTV/88888888/224/3221226251/2/index.m3u8
凤凰资讯,http://[2409:8087:3869:8021:1001::e5]:6610/PLTV/88888888/224/3221226274/2/index.m3u8
凤凰中文,http://[2409:8087:3869:8021:1001::e5]:6610/PLTV/88888888/224/3221226248/2/index.m3u8
凤凰中文,http://[2409:8087:3800:20:1000::40a]:8080/hwrr.jx.chinamobile.com:8080/PLTV/3/224/3221226248/index.m3u8
凤凰资讯,http://[2409:8087:3800:20:1000::80f]:8080/hwrr.jx.chinamobile.com:8080/PLTV/3/224/3221226274/index.m3u8
凤凰香港,http://[2409:8087:3800:2020:1000::40c]:8080/hwrr.jx.chinamobile.com:8080/PLTV/3/224/3221226251/index.m3u8
凤凰中文,http://hwrr.jx.chinamobile.com:8080/PLTV/88888888/224/3221226248/index.m3u8
凤凰资讯,http://hwrr.jx.chinamobile.com:8080/PLTV/88888888/224/3221226274/index.m3u8
凤凰香港,http://hwrr.jx.chinamobile.com:8080/PLTV/88888888/224/3221226251/index.m3u8
CNN,https://cnn-cnninternational-1-eu.rakuten.wurl.tv/206849c7acd1570962df1ad525fa8688.m3u8?blog.ntnas.top
TVBS亚洲,http://38.64.72.148:80/hls/modn/list/4005/chunklist1.m3u8
TVBS新闻,http://38.64.72.148:80/hls/modn/list/4006/chunklist1.m3u8
长城精品,http://38.64.72.148:80/hls/modn/list/4008/chunklist1.m3u8
民视新闻,http://38.64.72.148:80/hls/modn/list/4012/chunklist1.m3u8
台视新闻,http://38.64.72.148:80/hls/modn/list/4013/chunklist1.m3u8
TVBS亚洲,http://38.64.72.148:80/hls/modn/list/4005/chunklist0.m3u8
民视新闻,http://38.64.72.148:80/hls/modn/list/4012/chunklist0.m3u8
台视新闻,http://38.64.72.148:80/hls/modn/list/4013/chunklist0.m3u8

凤凰资讯HD,http://113.117.74.18:8081/hls/36/index.m3u8
凤凰中文HD,http://113.117.74.17:8081/hls/37/index.m3u8
凤凰香港HD,http://113.117.74.18:8081/hls/38/index.m3u8
凤凰香港HD,http://113.117.74.17:8081/hls/38/index.m3u8
凤凰资讯HD,http://20230520.cabc.cc/moss/1/fhx.php?id=fhzx
凤凰中文HD,http://20230520.cabc.cc/moss/1/fhx.php?id=fhzw
凤凰香港,http://20230520.cabc.cc/moss/1/fhx.php?id=fhhk
凤凰资讯HD,http://r.jdshipin.com/0Rp07
凤凰中文HD,http://r.jdshipin.com/cCCzW
4K影视,http://r.jdshipin.com/Lqdwf
4K影视,http://nas.jdshipin.com:8801/4kys.php
凤凰资讯,http://112.102.214.193:65530/live/fhzx/index.m3u8
凤凰中文,http://112.102.214.193:65530/live/fhzw/index.m3u8
凤凰香港,http://r.jdshipin.com/NfC0f
香港卫视,http://zhibo.hkstv.tv/livestream/mutfysrq/playlist.m3u8?wsSession=3c732f93c14e1bc0c07641df-156388849014752&wsIPSercert=8de23d0849e78e3b16ec92a2092354

翡翠台,http://nas.jdshipin.com:8801/gudoufc.php
明珠台,http://nas.jdshipin.com:8801/gudoumz.php
翡翠台,http://r.jdshipin.com/62WM7
翡翠台,http://r.jdshipin.com/n90gt
翡翠台,http://r.jdshipin.com/qClQf
翡翠台,http://183.62.244.43:9901/tsfile/live/1006_1.m3u8?key=txiptv&playlive=1&authid=0
翡翠台,http://gg.gg/tvbfc
翡翠台,http://113.117.74.10:8081/hls/67/index.m3u8
翡翠台,http://113.117.74.11:8081/hls/67/index.m3u8
翡翠台,http://113.117.74.12:8081/hls/67/index.m3u8
翡翠台,http://113.117.74.13:8081/hls/67/index.m3u8
翡翠台,http://113.117.74.25:8081/hls/67/index.m3u8
翡翠台,http://113.117.74.15:8081/hls/67/index.m3u8
翡翠台,http://113.117.74.24:8081/hls/67/index.m3u8
翡翠台,http://113.117.74.17:8081/hls/67/index.m3u8
翡翠台,http://113.117.74.18:8081/hls/67/index.m3u8
翡翠台,http://113.117.74.19:8081/hls/67/index.m3u8
翡翠台,http://113.117.74.20:8081/hls/67/index.m3u8
翡翠台,http://113.117.74.21:8081/hls/67/index.m3u8
翡翠台,http://113.117.74.22:8081/hls/67/index.m3u8
TVB1,http://line.gofast-tv.me:80/play/live.php?mac=00:1A:79:6F:5A:5D&stream=153396&extension=ts&play_token=qd42npLkoB
TVBS新闻,http://line.gofast-tv.me:80/play/live.php?mac=00:1A:79:6F:5A:5D&stream=153397&extension=ts&play_token=mpwdCCQONG
TVB,http://line.gofast-tv.me:80/play/live.php?mac=00:1A:79:6F:5A:5D&stream=153400&extension=ts&play_token=l1PpLPHRTQ
无线新闻台,http://line.gofast-tv.me:80/play/live.php?mac=00:1A:79:6F:5A:5D&stream=153399&extension=ts&play_token=mad8wXPonE
TVBe,http://line.gofast-tv.me:80/play/live.php?mac=00:1A:79:6F:5A:5D&stream=153398&extension=ts&play_token=0ib2fAt9jW
TVB1,http://line.gofast-tv.me:80/play/live.php?mac=00:1A:79:6F:5A:5D&stream=153401&extension=ts&play_token=wxx9BccHxp
千禧经典台,http://line.gofast-tv.me:80/play/live.php?mac=00:1A:79:6F:5A:5D&stream=153503&extension=ts&play_token=XgkUlCEKCM
娱乐新闻台,http://line.gofast-tv.me:80/play/live.php?mac=00:1A:79:6F:5A:5D&stream=153504&extension=ts&play_token=9urlq5p625
翡翠台HD,http://line.gofast-tv.me:80/play/live.php?mac=00:1A:79:6F:5A:5D&stream=153505&extension=ts&play_token=u4yRheiuaw
TVBS,http://line.gofast-tv.me:80/play/live.php?mac=00:1A:79:6F:5A:5D&stream=153507&extension=ts&play_token=Pun5nieBxs

CCTV1,http://39.136.18.70/cdnrrs.gz.chinamobile.com/PLTV/88888888/224/3221225726/1/index.m3u8?fmt=ts2hls
CCTV2,http://39.136.18.70/cdnrrs.gz.chinamobile.com/PLTV/88888888/224/3221225706/1/index.m3u8?fmt=ts2hls
CCTV13,http://39.136.18.70/cdnrrs.gz.chinamobile.com/PLTV/88888888/224/3221225748/1/index.m3u8?fmt=ts2hls

CCTV1,http://[2409:8087:1e03:21::2]:6060/cms001/ch00000090990000001022/index.m3u8?
CCTV2,http://[2409:8087:1e03:21::2]:6060/cms001/ch00000090990000001220/index.m3u8?
CCTV13,http://[2409:8087:1e03:21::2]:6060/cms001/ch00000090990000001328/index.m3u8?

CCTV1,http://[2409:8087:7000:20:1000::22]:6060/yinhe/2/ch00000090990000001068/index.m3u8?virtualDomain=yinhe.live_hls.zte.com
CCTV2,http://[2409:8087:7000:20:1000::22]:6060/yinhe/2/ch00000090990000001293/index.m3u8?virtualDomain=yinhe.live_hls.zte.com
CCTV13,http://[2409:8087:7000:20:1000::22]:6060/yinhe/2/ch00000090990000001328/index.m3u8?virtualDomain=yinhe.live_hls.zte.com


